{
  "$schema": "../schemas/ConcertsSchema.json",
  "data": [
    {
      "date": "1991-01-20T20:00:00+00:00",
      "date_confirmed": true,
      "contributors": [
        "John Russell",
        "Roger Turner",
        "John Butcher",
        "Vanessa Mackness",
        "Eddie Prevost",
        "Chris Burn"
      ],
      "sets": [
        [
          "John Russell",
          "Roger Turner"
        ],
        [
          "John Butcher",
          "Vanessa Mackness"
        ],
        [
          "Eddie Prevost",
          "Chris Burn"
        ]
      ],
      "venue": {
        "name": "Red Rose",
        "address": "Red Rose, 129 Seven Sisters Rd, Finsbury Park, London N7 7QG"
      },
      "sources": [
        "https://www.newspapers.com/image/260072425"
      ],
      "notes": [
        ">First of a monthly improvised music series to run thoughout 1991. Tonight explores duo interactions between some of London's [most] resourceful figures on the free scene. - *The Guardian 17th January 1991*"
      ]
    },
    {
      "date": "1994-12-18T20:00:00+01:00",
      "date_confirmed": true,
      "contributors": [
        "Maggie Nicholls",
        "Alan Tomlison",
        "Steve Noble",
        "John Russell"
      ],
      "sets": [],
      "venue": {
        "name": "Red Rose",
        "address": "Red Rose, 129 Seven Sisters Rd, Finsbury Park, London N7 7QG"
      },
      "sources": [
        "https://www.newspapers.com/image/261162796"
      ],
      "notes": [
        ">Mopomoso present the cream of contemporary Vortecists, freeformers and hairshirted impro-heads. - *The Guardian - Sat December 17 1994*"
      ]
    },
    {
      "date": "1995-04-22T20:00:00+01:00",
      "date_confirmed": true,
      "contributors": [
        "John Russell"
      ],
      "sets": [
        [
          "Phil Durrant",
          "John Russell",
          "???"
        ],
        [
          "Chris Atton",
          "Martin Hackett",
          "Mike Jennings"
        ]
      ],
      "venue": {
        "name": "Red Rose",
        "address": "Red Rose, 129 Seven Sisters Rd, Finsbury Park, London N7 7QG"
      },
      "sources": [
        "https://www.newspapers.com/image/260767758"
      ],
      "notes": [
        ">Highly recommended experimental night hosts avant-violinist Durrant with guitar maverick John Russell, plus a full scale electronic-acoustic blow-out from Atton's Leeds-based trio. - *The Guardian - Sat April 15 1995*",
        "Listing states \"Phil Durrant Trio\" not sure if this means Phil Durrant, John Russell and John Butcher"
      ]
    },
    {
      "date": "1995-05-21T20:30:00+01:00",
      "date_confirmed": true,
      "contributors": [],
      "sets": [
        [
          "Chris Burn",
          "John Butcher"
        ],
        [
          "Vanessa Mackness",
          "Phil Wachsmann",
          "Alex Frangenheim"
        ]
      ],
      "venue": {
        "name": "Red Rose",
        "address": "Red Rose, 129 Seven Sisters Rd, Finsbury Park, London N7 7QG"
      },
      "sources": [
        "https://www.newspapers.com/image/260798890"
      ],
      "notes": []
    },
    {
      "date": "1995-06-18T20:00:00+01:00",
      "date_confirmed": true,
      "contributors": [],
      "sets": [
        [
          "Phil Minton"
        ],
        [
          "Veryan Weston",
          "Lol Coxhill"
        ]
      ],
      "venue": {
        "name": "Red Rose",
        "address": "Red Rose, 129 Seven Sisters Rd, Finsbury Park, London N7 7QG"
      },
      "sources": [
        "https://www.newspapers.com/image/261096637"
      ],
      "notes": []
    },
    {
      "date": "1995-07-16T20:00:00+01:00",
      "date_confirmed": true,
      "contributors": [],
      "sets": [
        [
          "John Russell",
          "Hugh Davies"
        ],
        [
          "Marcio Mattos",
          "Phil Durrant",
          "? Hayward"
        ],
        [
          "? Jasnoch",
          "? Collin"
        ]
      ],
      "venue": {
        "name": "Red Rose",
        "address": "Red Rose, 129 Seven Sisters Rd, Finsbury Park, London N7 7QG"
      },
      "sources": [
        "https://www.newspapers.com/image/790512818",
        "https://www.newspapers.com/image/261124331"
      ]
    },
    {
      "date": "1995-08-20T20:00:00+01:00",
      "date_confirmed": true,
      "contributors": [
        "Uki Sobotta",
        "Vanessa Mackness"
      ],
      "sets": [],
      "venue": {
        "name": "Red Rose",
        "address": "Red Rose, 129 Seven Sisters Rd, Finsbury Park, London N7 7QG"
      },
      "sources": [
        "https://www.newspapers.com/image/261162796"
      ],
      "notes": [
        ">Euphonium and voice anarchy followed by improv choas. - *The Guardian - Sat August 19 1995*"
      ]
    },
    {
      "date": "1995-08-30T20:00:00+01:00",
      "date_confirmed": true,
      "contributors": [
        "Phil Minton",
        "Matt Hutchinson",
        "John Russell",
        "Caroline Kraabel"
      ],
      "sets": [],
      "venue": {
        "name": "Red Rose",
        "address": "Red Rose, 129 Seven Sisters Rd, Finsbury Park, London N7 7QG"
      },
      "sources": [
        "https://www.newspapers.com/image/261139122"
      ],
      "notes": []
    },
    {
      "date": "1995-09-03T20:30:00+00:00",
      "date_confirmed": true,
      "contributors": [
        "John Russell",
        "Roger Turner",
        "Paul Rutherford"
      ],
      "sets": [
        [
          "John Russell",
          "Roger Turner"
        ],
        [
          "Paul Rutherford"
        ]
      ],
      "venue": {
        "name": "Red Rose",
        "address": "Red Rose, 129 Seven Sisters Rd, Finsbury Park, London N7 7QG"
      },
      "sources": [
        "https://www.newspapers.com/image/790512689",
        "https://www.newspapers.com/image/261182678"
      ]
    },
    {
      "date": "1995-10-15T20:00:00+01:00",
      "date_confirmed": true,
      "contributors": [
        "John Russell",
        "Kyoske Tokunaga",
        "Hugh Davies"
      ],
      "sets": [],
      "venue": {
        "name": "Red Rose",
        "address": "Red Rose, 129 Seven Sisters Rd, Finsbury Park, London N7 7QG"
      },
      "sources": [
        "https://www.newspapers.com/image/790519910",
        "https://www.newspapers.com/image/260688156"
      ]
    },
    {
      "date": "1995-10-21T20:00:00+01:00",
      "date_confirmed": true,
      "contributors": [
        "Evan Parker"
      ],
      "sets": [
        [
          "Alex Maguire Trio"
        ]
      ],
      "venue": {
        "name": "Red Rose",
        "address": "Red Rose, 129 Seven Sisters Rd, Finsbury Park, London N7 7QG"
      },
      "sources": [
        "https://www.newspapers.com/image/260698215"
      ],
      "notes": []
    },
    {
      "date": "1996-01-07T20:00:00+00:00",
      "date_confirmed": true,
      "contributors": [],
      "sets": [
        [
          "Phil Minton",
          "Roger Turner"
        ],
        [
          "Vanessa Mackness",
          "John Butcher"
        ]
      ],
      "venue": {
        "name": "Red Rose",
        "address": "Red Rose, 129 Seven Sisters Rd, Finsbury Park, London N7 7QG"
      },
      "sources": [
        "https://www.newspapers.com/image/790521371"
      ]
    },
    {
      "date": "1996-01-14T20:00:00+00:00",
      "date_confirmed": true,
      "contributors": [],
      "sets": [
        [
          "John Russell",
          "Phil Durrant",
          "John Butcher"
        ],
        [
          "Matt Hutchinson",
          "Phil Wachsmann"
        ]
      ],
      "venue": {
        "name": "Red Rose",
        "address": "Red Rose, 129 Seven Sisters Rd, Finsbury Park, London N7 7QG"
      },
      "sources": [
        "https://www.newspapers.com/image/790525089"
      ]
    },
    {
      "date": "1996-01-28T20:00:00+00:00",
      "date_confirmed": true,
      "contributors": [],
      "sets": [
        [
          "Phil Minton Quartet"
        ],
        [
          "Lol Coxhill"
        ]
      ],
      "venue": {
        "name": "Red Rose",
        "address": "Red Rose, 129 Seven Sisters Rd, Finsbury Park, London N7 7QG"
      },
      "sources": [
        "https://www.newspapers.com/image/719375492",
        "https://www.newspapers.com/image/260858642"
      ],
      "notes": [
        ">Eccentric vocalist performs *riverrun* bashed on *Finnegan's Wake*. - *The Independant 26 Jan 1996*"
      ]
    },
    {
      "date": "1996-02-11T20:00:00+00:00",
      "date_confirmed": true,
      "contributors": [],
      "sets": [
        [
          "Evan Parker"
        ],
        [
          "Marcio Mattos",
          "Robin Hayward",
          "Nick Couldry"
        ]
      ],
      "venue": {
        "name": "Red Rose",
        "address": "Red Rose, 129 Seven Sisters Rd, Finsbury Park, London N7 7QG"
      },
      "sources": [
        "https://www.newspapers.com/image/790522035",
        "https://www.newspapers.com/image/260867057"
      ]
    },
    {
      "date": "1996-02-18T20:00:00+00:00",
      "date_confirmed": true,
      "contributors": [
        "? Klapper",
        "? Biskup",
        "Chris Burn",
        "John Butcher",
        "Phil Durrent",
        "? Wagner",
        "? Hafner"
      ],
      "sets": [],
      "venue": {
        "name": "Red Rose",
        "address": "Red Rose, 129 Seven Sisters Rd, Finsbury Park, London N7 7QG"
      },
      "sources": [
        "https://www.newspapers.com/image/260872275"
      ],
      "notes": [
        ">Certifiable floor, toy and electronic-banging improv mavericks. - *The Guardian - Sat Feb 17 1996*"
      ]
    },
    {
      "date": "1996-02-25T20:00:00+00:00",
      "date_confirmed": true,
      "contributors": [
        "Max Eastly",
        "Paul Shearsmith",
        "John Russell",
        "Adam Bohman",
        "Chris Burn"
      ],
      "sets": [],
      "venue": {
        "name": "Red Rose",
        "address": "Red Rose, 129 Seven Sisters Rd, Finsbury Park, London N7 7QG"
      },
      "sources": [
        "https://www.newspapers.com/image/790523953"
      ]
    },
    {
      "date": "1996-03-03T20:00:00+00:00",
      "date_confirmed": true,
      "contributors": [],
      "sets": [
        [
          "Steve Noble",
          "Alex Maguire"
        ],
        [
          "Steve Beresford",
          "Francine Luce"
        ]
      ],
      "venue": {
        "name": "Red Rose",
        "address": "Red Rose, 129 Seven Sisters Rd, Finsbury Park, London N7 7QG"
      },
      "sources": [
        "https://www.newspapers.com/image/790523400",
        "https://www.newspapers.com/image/260881048"
      ]
    },
    {
      "date": "1996-06-16T20:00:00+01:00",
      "date_confirmed": true,
      "contributors": [],
      "sets": [
        [
          "Lol Coxhill's Recedents"
        ],
        [
          "Evan Parker",
          "John Russell"
        ],
        [
          "Chris Burn"
        ]
      ],
      "venue": {
        "name": "Red Rose",
        "address": "Red Rose, 129 Seven Sisters Rd, Finsbury Park, London N7 7QG"
      },
      "sources": [
        "https://www.newspapers.com/image/790530845",
        "https://www.newspapers.com/image/260857284"
      ]
    },
    {
      "date": "1996-07-21T20:00:00+01:00",
      "date_confirmed": true,
      "contributors": [],
      "sets": [
        [
          "Vanessa Mackness Quartet"
        ],
        [
          "Alan Tomlinson"
        ],
        [
          "? Beck",
          "? Jaznoch",
          "? Parson"
        ]
      ],
      "venue": {
        "name": "Red Rose",
        "address": "Red Rose, 129 Seven Sisters Rd, Finsbury Park, London N7 7QG"
      },
      "sources": [
        "https://www.newspapers.com/image/260884134",
        "https://www.newspapers.com/image/790531716"
      ],
      "notes": []
    },
    {
      "date": "1996-09-22T20:00:00+01:00",
      "date_confirmed": true,
      "contributors": [],
      "sets": [
        [
          "Robin Hayward Group"
        ]
      ],
      "venue": {
        "name": "Red Rose",
        "address": "Red Rose, 129 Seven Sisters Rd, Finsbury Park, London N7 7QG"
      },
      "sources": [
        "https://www.newspapers.com/image/790536466",
        "https://www.newspapers.com/image/260941422"
      ],
      "notes": [
        ">Prodigous young tiba avant gardist - *The Guardian 21 Sept 1996*"
      ]
    },
    {
      "date": "1996-10-20T20:00:00+01:00",
      "date_confirmed": true,
      "contributors": [
        "Sascha Demand",
        "Roger Turner"
      ],
      "sets": [
        [
          "Thomas Lehn Trio"
        ]
      ],
      "venue": {
        "name": "Red Rose",
        "address": "Red Rose, 129 Seven Sisters Rd, Finsbury Park, London N7 7QG"
      },
      "sources": [
        "https://www.newspapers.com/image/260397440"
      ],
      "notes": []
    },
    {
      "date": "1996-11-17T20:00:00+00:00",
      "date_confirmed": true,
      "contributors": [],
      "sets": [
        [
          "Louis Moholo",
          "John Russell"
        ],
        [
          "Phil Durrant"
        ],
        [
          "Viv Corringham",
          "Sylvia Hallett"
        ]
      ],
      "venue": {
        "name": "Red Rose",
        "address": "Red Rose, 129 Seven Sisters Rd, Finsbury Park, London N7 7QG"
      },
      "sources": [
        "https://www.newspapers.com/image/790535142"
      ]
    },
    {
      "date": "1996-12-15T15:00:00+00:00",
      "date_confirmed": true,
      "contributors": [
        "Evan Parker"
      ],
      "sets": [],
      "venue": {
        "name": "Red Rose",
        "address": "Red Rose, 129 Seven Sisters Rd, Finsbury Park, London N7 7QG"
      },
      "sources": [
        "https://www.newspapers.com/image/790539044",
        "https://www.newspapers.com/image/260603844"
      ]
    },
    {
      "date": "1997-01-19T20:00:00+00:00",
      "date_confirmed": true,
      "contributors": [],
      "sets": [
        [
          "Ken Hyder",
          "Clive Bell"
        ],
        [
          "Alan Wilkinson"
        ],
        [
          "? Smith",
          "? Bissett",
          "? Edwards"
        ]
      ],
      "venue": {
        "name": "Red Rose",
        "address": "Red Rose, 129 Seven Sisters Rd, Finsbury Park, London N7 7QG"
      },
      "sources": [
        "https://www.newspapers.com/image/260704861"
      ],
      "notes": [
        "Newspaper scan is very low quality."
      ]
    },
    {
      "date": "1997-02-16T20:00:00+00:00",
      "date_confirmed": true,
      "contributors": [
        "Steve Bereford",
        "Nigel Coombes",
        "Veryan Weston",
        "Hugh Davies",
        "John Russell",
        "Roger Turner"
      ],
      "sets": [],
      "venue": {
        "name": "Red Rose",
        "address": "Red Rose, 129 Seven Sisters Rd, Finsbury Park, London N7 7QG"
      },
      "sources": [
        "https://www.newspapers.com/image/260738943"
      ],
      "notes": [
        ">Improvised music session with 3 duet for piano and violin solo pianist Weston and a trio for amplified objects, trash guitar and percussion. - *The Guardian - Sat Feb 15 1997*"
      ]
    },
    {
      "date": "1997-05-18T20:00:00+01:00",
      "date_confirmed": false,
      "contributors": [
        "Chris Burn",
        "Rhodri Davies",
        "Phil Durrant"
      ],
      "sets": [],
      "venue": {
        "name": "Red Rose",
        "address": "Red Rose, 129 Seven Sisters Rd, Finsbury Park, London N7 7QG"
      },
      "sources": [
        "https://rhodridavies.bandcamp.com/album/archif-11-red-rose-18-05-1997"
      ]
    },
    {
      "date": "1998-05-16T20:00:00+01:00",
      "date_confirmed": true,
      "contributors": [
        "Matt Hutchinson",
        "Veryan Weston",
        "Gail Brand"
      ],
      "sets": [],
      "venue": {
        "name": "Red Rose",
        "address": "Red Rose, 129 Seven Sisters Rd, Finsbury Park, London N7 7QG"
      },
      "sources": [
        "https://www.newspapers.com/image/260722825"
      ],
      "notes": []
    },
    {
      "date": "1998-06-21T20:00:00+01:00",
      "date_confirmed": true,
      "contributors": [
        "Phil Durrant",
        "? Renkel",
        "? Davies",
        "? Beins",
        "Markus Wettstein"
      ],
      "sets": [],
      "venue": {
        "name": "Red Rose",
        "address": "Red Rose, 129 Seven Sisters Rd, Finsbury Park, London N7 7QG"
      },
      "sources": [
        "https://www.newspapers.com/image/260769500"
      ],
      "notes": []
    },
    {
      "date": "1998-07-19T20:00:00+00:00",
      "date_confirmed": true,
      "contributors": [
        "Maggie Nichols",
        "Marcio Mattos",
        "Veryan Weston",
        "Gail Brand"
      ],
      "sets": [],
      "venue": {
        "name": "Red Rose",
        "address": "Red Rose, 129 Seven Sisters Rd, Finsbury Park, London N7 7QG"
      },
      "sources": [
        "https://www.newspapers.com/newspage/260814384/",
        "https://www.newspapers.com/newspage/260814384/"
      ]
    },
    {
      "date": "1998-09-20T20:00:00+01:00",
      "date_confirmed": true,
      "contributors": [
        "Terry Day"
      ],
      "sets": [],
      "venue": {
        "name": "Red Rose",
        "address": "Red Rose, 129 Seven Sisters Rd, Finsbury Park, London N7 7QG"
      },
      "sources": [
        "https://www.newspapers.com/image/260575424"
      ],
      "notes": []
    },
    {
      "date": "1998-10-18T20:00:00+00:00",
      "date_confirmed": true,
      "contributors": [
        "John Butcher",
        "Steve Beresford",
        "Fabienne Audeoud"
      ],
      "sets": [],
      "venue": {
        "name": "Red Rose",
        "address": "Red Rose, 129 Seven Sisters Rd, Finsbury Park, London N7 7QG"
      },
      "sources": [
        "https://www.newspapers.com/image/260658597"
      ],
      "notes": []
    },
    {
      "date": "1998-11-15T20:00:00+01:00",
      "date_confirmed": true,
      "contributors": [
        "Evan Parker",
        "Gail Brand"
      ],
      "sets": [],
      "venue": {
        "name": "Red Rose",
        "address": "Red Rose, 129 Seven Sisters Rd, Finsbury Park, London N7 7QG"
      },
      "sources": [
        "https://www.newspapers.com/image/260379107",
        "https://www.newspapers.com/image/720137321"
      ],
      "notes": []
    },
    {
      "date": "2000-03-18T20:00:00+00:00",
      "date_confirmed": true,
      "contributors": [
        "Alan Tomlinson",
        "Richard Barrett"
      ],
      "sets": [],
      "venue": {
        "name": "Red Rose",
        "address": "Red Rose, 129 Seven Sisters Rd, Finsbury Park, London N7 7QG"
      },
      "sources": [
        "https://www.newspapers.com/image/719964352"
      ],
      "notes": []
    },
    {
      "date": "2000-03-19T20:00:00+00:00",
      "date_confirmed": false,
      "contributors": [
        "FURT"
      ],
      "sets": [],
      "venue": {
        "name": "Red Rose",
        "address": "Red Rose, 129 Seven Sisters Rd, Finsbury Park, London N7 7QG"
      },
      "sources": [
        "https://furtlogic.com/node/76.html"
      ]
    },
    {
      "date": "2001-12-16T20:00:00+00:00",
      "date_confirmed": true,
      "contributors": [
        "Lol Coxhill",
        "Hugh Davies",
        "Sue Ferrar",
        "Roger Turner",
        "John Russell",
        "Paul Smyth",
        "Chris Burn",
        "Rhodri Davies",
        "Adam Bohman",
        "Alan Wilkinson",
        "Matt Hutchinson"
      ],
      "sets": [],
      "venue": {
        "name": "Red Rose",
        "address": "Red Rose, 129 Seven Sisters Rd, Finsbury Park, London N7 7QG"
      },
      "sources": [
        "https://thumped.com/bbs/threads/in-london-this-sunday-16th.801/"
      ]
    },
    {
      "date": "2002-11-17T20:00:00+00:00",
      "date_confirmed": false,
      "contributors": [
        "John Edwards",
        "John Russell",
        "Chris Burn",
        "Lol Coxhill",
        "Phil Minton"
      ],
      "venue": {
        "name": "Red Rose",
        "address": "Red Rose, 129 Seven Sisters Rd, Finsbury Park, London N7 7QG"
      },
      "sources": [
        "https://www.discogs.com/release/2056127-Chris-Burn-Lol-Coxhill-John-Edwards-Phil-Minton-John-Russell-Mopomoso-Solos-2002"
      ]
    },
    {
      "date": "2005-12-18T20:00:00+00:00",
      "date_confirmed": false,
      "contributors": [
        "Dominic Lash"
      ],
      "sets": [
        [
          "Dominic Lash",
          "Veryan Weston",
          "Paul May"
        ]
      ],
      "venue": {
        "name": "Red Rose",
        "address": "Red Rose, 129 Seven Sisters Rd, Finsbury Park, London N7 7QG"
      },
      "sources": [
        "http://dominiclash.blogspot.com/p/gig-archive.html"
      ]
    },
    {
      "date": "2006-12-17T20:00:00+00:00",
      "date_confirmed": false,
      "contributors": [
        "Dominic Lash"
      ],
      "sets": [
        [
          "Dominic Lash",
          "Dave Tucker",
          "Dave Fowler",
          "Yedo Gibson"
        ],
        [
          "Dominic Lash",
          "Lol Coxhill",
          "Alexander Hawkins"
        ],
        [
          "Dominic Lash",
          "John Russell",
          "Alexander Hawkins",
          "Stegan Keune",
          "Matt Hutchinson",
          "Hannah Marshall",
          "Kay Grant",
          "Chefa Alonso",
          "Harry Gilonis"
        ]
      ],
      "venue": {
        "name": "Red Rose",
        "address": "Red Rose, 129 Seven Sisters Rd, Finsbury Park, London N7 7QG"
      },
      "sources": [
        "http://dominiclash.blogspot.com/p/gig-archive.html"
      ]
    },
    {
      "date": "2007-02-18T20:00:00+00:00",
      "date_confirmed": false,
      "contributors": [
        "Grew Trio",
        "Dominic Lash"
      ],
      "sets": [
        [
          "Grew Trio",
          "Dominic Lash"
        ]
      ],
      "venue": {
        "name": "Red Rose",
        "address": "Red Rose, 129 Seven Sisters Rd, Finsbury Park, London N7 7QG"
      },
      "sources": [
        "http://dominiclash.blogspot.com/p/gig-archive.html"
      ]
    },
    {
      "date": "2007-06-10T20:00:00+01:00",
      "date_confirmed": false,
      "contributors": [
        "Henry Kaiser",
        "Steve Beresford",
        "Lol Coxhill",
        "Satoko Fukuda",
        "John Russell",
        "Roger Turner",
        "Hannah Marshall"
      ],
      "sets": [
        [
          "Henry Kaiser",
          "Steve Beresford"
        ],
        [
          "Henry Kaiser",
          "John Russell"
        ],
        [
          "Steve Beresford",
          "Roger Turner"
        ],
        [
          "Henry Kaiser",
          "Steve Beresford",
          "John Russell",
          "Roger Turner",
          "Satoko Fukuda"
        ],
        [
          "Hannah Marshall",
          "Col Coxhill"
        ]
      ],
      "venue": {
        "name": "Red Rose",
        "address": "Red Rose, 129 Seven Sisters Rd, Finsbury Park, London N7 7QG"
      },
      "sources": [
        "https://www.flickr.com/photos/mattbrown1984/541679759/",
        "http://offminor.purplebadger.com/archives/146"
      ]
    },
    {
      "date": "2007-10-21T20:00:00+00:00",
      "date_confirmed": false,
      "contributors": [
        "Imaginary String Trio",
        "Dominic Lash"
      ],
      "sets": [],
      "venue": {
        "name": "Red Rose",
        "address": "Red Rose, 129 Seven Sisters Rd, Finsbury Park, London N7 7QG"
      },
      "sources": [
        "http://dominiclash.blogspot.com/p/gig-archive.html"
      ]
    },
    {
      "date": "2007-12-16T20:00:00+00:00",
      "date_confirmed": false,
      "contributors": [
        "Steve Beresford",
        "John Russell",
        "Kay Grant",
        "Roger Turner",
        "Dave Tucker",
        "Dominic Lash"
      ],
      "sets": [
        [
          "Steve Beresford",
          "John Russell",
          "Kay Grant",
          "Roger Turner"
        ],
        [
          "Dave Tucker",
          "Dominic Lash"
        ],
        [
          "Dave Tucker",
          "Dominic Lash",
          "Chris Cundy",
          "Dave Fowler",
          "Adrian Northover"
        ],
        [
          "Alison Blunt",
          "Ivor Kallin",
          "Hannah Marshall",
          "Dominic Lash"
        ]
      ],
      "venue": {
        "name": "Red Rose",
        "address": "Red Rose, 129 Seven Sisters Rd, Finsbury Park, London N7 7QG"
      },
      "sources": [
        "https://www.youtube.com/watch?v=bWsJqk4Onv8",
        "https://www.thewire.co.uk/audio/tracks/john-russell-remembers-special-performances-at-mopomoso",
        "http://dominiclash.blogspot.com/p/gig-archive.html"
      ]
    }
  ]
}
